…
``` r
month_df = 
  tibble(
    month = 1:12,
    month_name = month.name
  )

precip_df = 
  bind_rows(precip_2018,precip_2017) 

left_join(precip_df, month_df, by = "month" )
```

    ## # A tibble: 24 x 4
    ##     year month total month_name
    ##    <dbl> <dbl> <dbl> <chr>     
    ##  1  2018     1  0.94 January   
    ##  2  2018     2  4.8  February  
    ##  3  2018     3  2.69 March     
    ##  4  2018     4  4.69 April     
    ##  5  2018     5  9.27 May       
    ##  6  2018     6  4.77 June      
    ##  7  2018     7 10.2  July      
    ##  8  2018     8  6.45 August    
    ##  9  2018     9 10.5  September 
    ## 10  2018    10  2.12 October   
    ## # … with 14 more rows
…
    ## See spec(...) for full column specifications.

``` r
NYC_transit_df = janitor::clean_names(NYC_transit_df)
```

Choose some columns and not others.

``` r
select(NYC_transit_df, line, station_name, station_latitude, station_longitude, route1, route2, route3, route4, route5, route6, route7, route8, route9, route10, route11, entry, vending, entrance_type, ada)
```

    ## # A tibble: 1,868 x 19
    ##    line  station_name station_latitude station_longitu… route1 route2 route3
    ##    <chr> <chr>                   <dbl>            <dbl> <chr>  <chr>  <chr> 
    ##  1 4 Av… 25th St                  40.7            -74.0 R      <NA>   <NA>  
    ##  2 4 Av… 25th St                  40.7            -74.0 R      <NA>   <NA>  
    ##  3 4 Av… 36th St                  40.7            -74.0 N      R      <NA>  
    ##  4 4 Av… 36th St                  40.7            -74.0 N      R      <NA>  
    ##  5 4 Av… 36th St                  40.7            -74.0 N      R      <NA>  
    ##  6 4 Av… 45th St                  40.6            -74.0 R      <NA>   <NA>  
    ##  7 4 Av… 45th St                  40.6            -74.0 R      <NA>   <NA>  
    ##  8 4 Av… 45th St                  40.6            -74.0 R      <NA>   <NA>  
    ##  9 4 Av… 45th St                  40.6            -74.0 R      <NA>   <NA>  
    ## 10 4 Av… 53rd St                  40.6            -74.0 R      <NA>   <NA>  
    ## # … with 1,858 more rows, and 12 more variables: route4 <chr>, route5 <chr>,
    ## #   route6 <chr>, route7 <chr>, route8 <dbl>, route9 <dbl>, route10 <dbl>,
    ## #   route11 <dbl>, entry <chr>, vending <chr>, entrance_type <chr>, ada <lgl>
…
